<mxfile host="app.diagrams.net" modified="2020-10-28T09:12:41.239Z" agent="5.0 (Windows)" etag="e_XK22P6BQwib92f0hTw" version="13.8.5" type="gitlab">
  <diagram id="C5RBs43oDa-KdzZeNtuy" name="Page-1">
    <mxGraphModel dx="1422" dy="791" grid="1" gridSize="10" guides="1" tooltips="1" connect="1" arrows="1" fold="1" page="1" pageScale="1" pageWidth="827" pageHeight="1169" math="0" shadow="0">
      <root>
        <mxCell id="WIyWlLk6GJQsqaUBKTNV-0" />
        <mxCell id="WIyWlLk6GJQsqaUBKTNV-1" parent="WIyWlLk6GJQsqaUBKTNV-0" />
        <mxCell id="hQFaT9-DjGS3fyQhqswx-2" value="" style="whiteSpace=wrap;html=1;aspect=fixed;" vertex="1" parent="WIyWlLk6GJQsqaUBKTNV-1">
          <mxGeometry x="70" y="240" width="140" height="140" as="geometry" />
        </mxCell>
        <mxCell id="hQFaT9-DjGS3fyQhqswx-3" value="" style="rounded=0;whiteSpace=wrap;html=1;" vertex="1" parent="WIyWlLk6GJQsqaUBKTNV-1">
          <mxGeometry x="70" y="240" width="140" height="30" as="geometry" />
        </mxCell>
        <mxCell id="hQFaT9-DjGS3fyQhqswx-5" value="Turn" style="text;html=1;strokeColor=none;fillColor=none;align=center;verticalAlign=middle;whiteSpace=wrap;rounded=0;" vertex="1" parent="WIyWlLk6GJQsqaUBKTNV-1">
          <mxGeometry x="120" y="245" width="40" height="20" as="geometry" />
        </mxCell>
        <mxCell id="hQFaT9-DjGS3fyQhqswx-6" value="" style="rounded=0;whiteSpace=wrap;html=1;" vertex="1" parent="WIyWlLk6GJQsqaUBKTNV-1">
          <mxGeometry x="70" y="270" width="140" height="20" as="geometry" />
        </mxCell>
        <mxCell id="hQFaT9-DjGS3fyQhqswx-7" value="- turn" style="text;html=1;strokeColor=none;fillColor=none;align=center;verticalAlign=middle;whiteSpace=wrap;rounded=0;" vertex="1" parent="WIyWlLk6GJQsqaUBKTNV-1">
          <mxGeometry x="120" y="270" width="40" height="20" as="geometry" />
        </mxCell>
        <mxCell id="hQFaT9-DjGS3fyQhqswx-8" value="+ next_turn" style="text;html=1;strokeColor=none;fillColor=none;align=center;verticalAlign=middle;whiteSpace=wrap;rounded=0;" vertex="1" parent="WIyWlLk6GJQsqaUBKTNV-1">
          <mxGeometry x="100" y="310" width="80" height="20" as="geometry" />
        </mxCell>
        <mxCell id="hQFaT9-DjGS3fyQhqswx-10" value="+ cur_turn" style="text;html=1;strokeColor=none;fillColor=none;align=center;verticalAlign=middle;whiteSpace=wrap;rounded=0;" vertex="1" parent="WIyWlLk6GJQsqaUBKTNV-1">
          <mxGeometry x="100" y="340" width="80" height="20" as="geometry" />
        </mxCell>
        <mxCell id="hQFaT9-DjGS3fyQhqswx-11" value="" style="whiteSpace=wrap;html=1;aspect=fixed;" vertex="1" parent="WIyWlLk6GJQsqaUBKTNV-1">
          <mxGeometry x="270" y="240" width="140" height="140" as="geometry" />
        </mxCell>
        <mxCell id="hQFaT9-DjGS3fyQhqswx-12" value="" style="whiteSpace=wrap;html=1;aspect=fixed;" vertex="1" parent="WIyWlLk6GJQsqaUBKTNV-1">
          <mxGeometry x="460" y="240" width="140" height="140" as="geometry" />
        </mxCell>
        <mxCell id="hQFaT9-DjGS3fyQhqswx-13" value="" style="whiteSpace=wrap;html=1;aspect=fixed;" vertex="1" parent="WIyWlLk6GJQsqaUBKTNV-1">
          <mxGeometry x="650" y="240" width="140" height="140" as="geometry" />
        </mxCell>
        <mxCell id="hQFaT9-DjGS3fyQhqswx-14" value="" style="rounded=0;whiteSpace=wrap;html=1;" vertex="1" parent="WIyWlLk6GJQsqaUBKTNV-1">
          <mxGeometry x="270" y="240" width="140" height="30" as="geometry" />
        </mxCell>
        <mxCell id="hQFaT9-DjGS3fyQhqswx-15" value="" style="rounded=0;whiteSpace=wrap;html=1;" vertex="1" parent="WIyWlLk6GJQsqaUBKTNV-1">
          <mxGeometry x="460" y="240" width="140" height="30" as="geometry" />
        </mxCell>
        <mxCell id="hQFaT9-DjGS3fyQhqswx-16" value="" style="rounded=0;whiteSpace=wrap;html=1;" vertex="1" parent="WIyWlLk6GJQsqaUBKTNV-1">
          <mxGeometry x="650" y="240" width="140" height="30" as="geometry" />
        </mxCell>
        <mxCell id="hQFaT9-DjGS3fyQhqswx-17" value="" style="rounded=0;whiteSpace=wrap;html=1;" vertex="1" parent="WIyWlLk6GJQsqaUBKTNV-1">
          <mxGeometry x="270" y="270" width="140" height="20" as="geometry" />
        </mxCell>
        <mxCell id="hQFaT9-DjGS3fyQhqswx-18" value="" style="rounded=0;whiteSpace=wrap;html=1;" vertex="1" parent="WIyWlLk6GJQsqaUBKTNV-1">
          <mxGeometry x="460" y="270" width="140" height="20" as="geometry" />
        </mxCell>
        <mxCell id="hQFaT9-DjGS3fyQhqswx-19" value="" style="rounded=0;whiteSpace=wrap;html=1;" vertex="1" parent="WIyWlLk6GJQsqaUBKTNV-1">
          <mxGeometry x="650" y="270" width="140" height="20" as="geometry" />
        </mxCell>
        <mxCell id="hQFaT9-DjGS3fyQhqswx-21" value="Cell" style="text;html=1;strokeColor=none;fillColor=none;align=center;verticalAlign=middle;whiteSpace=wrap;rounded=0;" vertex="1" parent="WIyWlLk6GJQsqaUBKTNV-1">
          <mxGeometry x="320" y="245" width="40" height="20" as="geometry" />
        </mxCell>
        <mxCell id="hQFaT9-DjGS3fyQhqswx-22" value="Field" style="text;html=1;strokeColor=none;fillColor=none;align=center;verticalAlign=middle;whiteSpace=wrap;rounded=0;" vertex="1" parent="WIyWlLk6GJQsqaUBKTNV-1">
          <mxGeometry x="510" y="245" width="40" height="20" as="geometry" />
        </mxCell>
        <mxCell id="hQFaT9-DjGS3fyQhqswx-23" value="Game" style="text;html=1;strokeColor=none;fillColor=none;align=center;verticalAlign=middle;whiteSpace=wrap;rounded=0;" vertex="1" parent="WIyWlLk6GJQsqaUBKTNV-1">
          <mxGeometry x="700" y="245" width="40" height="20" as="geometry" />
        </mxCell>
        <mxCell id="hQFaT9-DjGS3fyQhqswx-24" value="- state" style="text;html=1;strokeColor=none;fillColor=none;align=center;verticalAlign=middle;whiteSpace=wrap;rounded=0;" vertex="1" parent="WIyWlLk6GJQsqaUBKTNV-1">
          <mxGeometry x="320" y="270" width="40" height="20" as="geometry" />
        </mxCell>
        <mxCell id="hQFaT9-DjGS3fyQhqswx-25" value="- x,y" style="text;html=1;strokeColor=none;fillColor=none;align=center;verticalAlign=middle;whiteSpace=wrap;rounded=0;" vertex="1" parent="WIyWlLk6GJQsqaUBKTNV-1">
          <mxGeometry x="510" y="270" width="40" height="20" as="geometry" />
        </mxCell>
        <mxCell id="hQFaT9-DjGS3fyQhqswx-26" value="- first_turn" style="text;html=1;strokeColor=none;fillColor=none;align=center;verticalAlign=middle;whiteSpace=wrap;rounded=0;" vertex="1" parent="WIyWlLk6GJQsqaUBKTNV-1">
          <mxGeometry x="690" y="270" width="60" height="20" as="geometry" />
        </mxCell>
        <mxCell id="hQFaT9-DjGS3fyQhqswx-27" value="+ is_empty" style="text;html=1;strokeColor=none;fillColor=none;align=center;verticalAlign=middle;whiteSpace=wrap;rounded=0;" vertex="1" parent="WIyWlLk6GJQsqaUBKTNV-1">
          <mxGeometry x="300" y="300" width="80" height="20" as="geometry" />
        </mxCell>
        <mxCell id="hQFaT9-DjGS3fyQhqswx-28" value="+ set" style="text;html=1;strokeColor=none;fillColor=none;align=center;verticalAlign=middle;whiteSpace=wrap;rounded=0;" vertex="1" parent="WIyWlLk6GJQsqaUBKTNV-1">
          <mxGeometry x="320" y="320" width="40" height="20" as="geometry" />
        </mxCell>
        <mxCell id="hQFaT9-DjGS3fyQhqswx-29" value="+ state" style="text;html=1;strokeColor=none;fillColor=none;align=center;verticalAlign=middle;whiteSpace=wrap;rounded=0;" vertex="1" parent="WIyWlLk6GJQsqaUBKTNV-1">
          <mxGeometry x="320" y="340" width="40" height="20" as="geometry" />
        </mxCell>
        <mxCell id="hQFaT9-DjGS3fyQhqswx-31" value="+ show" style="text;html=1;strokeColor=none;fillColor=none;align=center;verticalAlign=middle;whiteSpace=wrap;rounded=0;" vertex="1" parent="WIyWlLk6GJQsqaUBKTNV-1">
          <mxGeometry x="500" y="300" width="60" height="20" as="geometry" />
        </mxCell>
        <mxCell id="hQFaT9-DjGS3fyQhqswx-32" value="+ get_cell" style="text;html=1;strokeColor=none;fillColor=none;align=center;verticalAlign=middle;whiteSpace=wrap;rounded=0;" vertex="1" parent="WIyWlLk6GJQsqaUBKTNV-1">
          <mxGeometry x="495" y="320" width="70" height="20" as="geometry" />
        </mxCell>
        <mxCell id="hQFaT9-DjGS3fyQhqswx-33" value="+ set_cell" style="text;html=1;strokeColor=none;fillColor=none;align=center;verticalAlign=middle;whiteSpace=wrap;rounded=0;" vertex="1" parent="WIyWlLk6GJQsqaUBKTNV-1">
          <mxGeometry x="495" y="340" width="70" height="20" as="geometry" />
        </mxCell>
        <mxCell id="hQFaT9-DjGS3fyQhqswx-34" value="+ iput_data" style="text;html=1;strokeColor=none;fillColor=none;align=center;verticalAlign=middle;whiteSpace=wrap;rounded=0;" vertex="1" parent="WIyWlLk6GJQsqaUBKTNV-1">
          <mxGeometry x="685" y="290" width="70" height="20" as="geometry" />
        </mxCell>
        <mxCell id="hQFaT9-DjGS3fyQhqswx-35" value="+ someone_won" style="text;html=1;strokeColor=none;fillColor=none;align=center;verticalAlign=middle;whiteSpace=wrap;rounded=0;" vertex="1" parent="WIyWlLk6GJQsqaUBKTNV-1">
          <mxGeometry x="665" y="310" width="110" height="20" as="geometry" />
        </mxCell>
        <mxCell id="hQFaT9-DjGS3fyQhqswx-36" value="+ run" style="text;html=1;strokeColor=none;fillColor=none;align=center;verticalAlign=middle;whiteSpace=wrap;rounded=0;" vertex="1" parent="WIyWlLk6GJQsqaUBKTNV-1">
          <mxGeometry x="700" y="330" width="40" height="20" as="geometry" />
        </mxCell>
        <mxCell id="hQFaT9-DjGS3fyQhqswx-37" value="+ turn" style="text;html=1;strokeColor=none;fillColor=none;align=center;verticalAlign=middle;whiteSpace=wrap;rounded=0;" vertex="1" parent="WIyWlLk6GJQsqaUBKTNV-1">
          <mxGeometry x="700" y="350" width="40" height="20" as="geometry" />
        </mxCell>
        <mxCell id="hQFaT9-DjGS3fyQhqswx-42" value="" style="endArrow=none;html=1;" edge="1" parent="WIyWlLk6GJQsqaUBKTNV-1" source="hQFaT9-DjGS3fyQhqswx-49">
          <mxGeometry width="50" height="50" relative="1" as="geometry">
            <mxPoint x="210" y="320" as="sourcePoint" />
            <mxPoint x="270" y="320" as="targetPoint" />
          </mxGeometry>
        </mxCell>
        <mxCell id="hQFaT9-DjGS3fyQhqswx-43" value="" style="endArrow=none;html=1;entryX=0;entryY=0.564;entryDx=0;entryDy=0;entryPerimeter=0;" edge="1" parent="WIyWlLk6GJQsqaUBKTNV-1" target="hQFaT9-DjGS3fyQhqswx-12">
          <mxGeometry width="50" height="50" relative="1" as="geometry">
            <mxPoint x="410" y="319" as="sourcePoint" />
            <mxPoint x="450" y="319" as="targetPoint" />
          </mxGeometry>
        </mxCell>
        <mxCell id="hQFaT9-DjGS3fyQhqswx-48" value="" style="endArrow=none;html=1;" edge="1" parent="WIyWlLk6GJQsqaUBKTNV-1" source="hQFaT9-DjGS3fyQhqswx-52">
          <mxGeometry width="50" height="50" relative="1" as="geometry">
            <mxPoint x="600" y="320" as="sourcePoint" />
            <mxPoint x="650" y="320" as="targetPoint" />
          </mxGeometry>
        </mxCell>
        <mxCell id="hQFaT9-DjGS3fyQhqswx-49" value="" style="rhombus;whiteSpace=wrap;html=1;fillColor=#000000;" vertex="1" parent="WIyWlLk6GJQsqaUBKTNV-1">
          <mxGeometry x="190" y="305" width="40" height="30" as="geometry" />
        </mxCell>
        <mxCell id="hQFaT9-DjGS3fyQhqswx-50" value="" style="endArrow=none;html=1;" edge="1" parent="WIyWlLk6GJQsqaUBKTNV-1" target="hQFaT9-DjGS3fyQhqswx-49">
          <mxGeometry width="50" height="50" relative="1" as="geometry">
            <mxPoint x="210" y="320" as="sourcePoint" />
            <mxPoint x="270" y="320" as="targetPoint" />
          </mxGeometry>
        </mxCell>
        <mxCell id="hQFaT9-DjGS3fyQhqswx-51" value="" style="rhombus;whiteSpace=wrap;html=1;fillColor=#000000;" vertex="1" parent="WIyWlLk6GJQsqaUBKTNV-1">
          <mxGeometry x="390" y="305" width="40" height="30" as="geometry" />
        </mxCell>
        <mxCell id="hQFaT9-DjGS3fyQhqswx-52" value="" style="rhombus;whiteSpace=wrap;html=1;fillColor=#000000;" vertex="1" parent="WIyWlLk6GJQsqaUBKTNV-1">
          <mxGeometry x="580" y="305" width="40" height="30" as="geometry" />
        </mxCell>
        <mxCell id="hQFaT9-DjGS3fyQhqswx-54" value="" style="endArrow=none;html=1;" edge="1" parent="WIyWlLk6GJQsqaUBKTNV-1" target="hQFaT9-DjGS3fyQhqswx-52">
          <mxGeometry width="50" height="50" relative="1" as="geometry">
            <mxPoint x="600" y="320" as="sourcePoint" />
            <mxPoint x="650" y="320" as="targetPoint" />
          </mxGeometry>
        </mxCell>
      </root>
    </mxGraphModel>
  </diagram>
</mxfile>
